%!PS-Adobe-3.0 EPSF-3.0
%%Creator: GIMP PostScript file plugin V 1.17 by Peter Kirchgessner
%%Title: logo.eps
%%CreationDate: Fri Dec 01 08:02:23 2017
%%DocumentData: Clean7Bit
%%LanguageLevel: 2
%%Pages: 1
%%BoundingBox: 14 14 182 181
%%EndComments
%%BeginProlog
% Use own dictionary to avoid conflicts
10 dict begin
%%EndProlog
%%Page: 1 1
% Translate for offset
14.173228346456694 14.173228346456694 translate
% Translate to begin of first scanline
0 166.31999999999999 translate
167.03999999999999 -166.31999999999999 scale
% Image geometry
232 231 8
% Transformation matrix
[ 232 0 0 231 0 0 ]
% Strings to hold RGB-samples per scanline
/rstr 232 string def
/gstr 232 string def
/bstr 232 string def
{currentfile /ASCII85Decode filter /RunLengthDecode filter rstr readstring pop}
{currentfile /ASCII85Decode filter /RunLengthDecode filter gstr readstring pop}
{currentfile /ASCII85Decode filter /RunLengthDecode filter bstr readstring pop}
true 3
%%BeginData:         9575 ASCII Bytes
colorimage
JcD/<J,~>
JcD/<J,~>
JcD/<J,~>
JcD/<J,~>
JcD/<J,~>
JcD/<J,~>
JcD/<J,~>
JcD/<J,~>
JcD/<J,~>
JcD/<J,~>
JcD/<J,~>
JcD/<J,~>
JcD/<J,~>
JcD/<J,~>
JcD/<J,~>
JcD/<J,~>
JcD/<J,~>
JcD/<J,~>
JcD/<J,~>
JcD/<J,~>
JcD/<J,~>
JcD/<J,~>
JcD/<J,~>
JcD/<J,~>
JcD/<J,~>
JcD/<J,~>
JcD/<J,~>
JcD/<J,~>
JcD/<J,~>
JcD/<J,~>
JcD/<J,~>
JcD/<J,~>
JcD/<J,~>
JcD/<J,~>
JcD/<J,~>
JcD/<J,~>
JcD/<J,~>
JcD/<J,~>
JcD/<J,~>
JcD/<J,~>
JcD/<J,~>
JcD/<J,~>
JcD/<J,~>
JcD/<J,~>
JcD/<J,~>
JcD/<J,~>
JcD/<J,~>
JcD/<J,~>
JcD/<J,~>
JcD/<J,~>
JcD/<J,~>
JcD/<J,~>
JcD/<J,~>
JcD/<J,~>
JcD/<J,~>
JcD/<J,~>
JcD/<J,~>
JcD/<J,~>
JcD/<J,~>
JcD/<J,~>
JcD/<J,~>
JcD/<J,~>
JcD/<J,~>
JcD/<J,~>
JcD/<J,~>
JcD/<J,~>
JcD/<J,~>
JcD/<J,~>
JcD/<J,~>
JcD/<J,~>
JcD/<J,~>
JcD/<J,~>
JcD/<J,~>
JcD/<J,~>
JcD/<J,~>
JcD/<J,~>
JcD/<J,~>
JcD/<J,~>
JcD/<J,~>
JcD/<J,~>
JcD/<J,~>
JcD/<J,~>
JcD/<J,~>
JcD/<J,~>
JcD/<J,~>
JcD/<J,~>
JcD/<J,~>
JcD/<J,~>
JcD/<J,~>
JcD/<J,~>
JcD/<J,~>
JcD/<J,~>
JcD/<J,~>
JcD/<J,~>
JcD/<J,~>
JcD/<J,~>
JcD/<J,~>
JcD/<J,~>
JcD/<J,~>
JcD/<J,~>
JcD/<J,~>
JcD/<J,~>
JcD/<J,~>
JcD/<J,~>
JcD/<J,~>
JcD/<J,~>
JcD/<J,~>
JcD/<J,~>
JcD/<J,~>
JcD/<J,~>
JcD/<J,~>
JcD/<J,~>
JcD/<J,~>
JcD/<J,~>
JcD/<J,~>
JcD/<J,~>
JcD/<J,~>
JcD/<J,~>
JcD/<J,~>
JcD/<J,~>
JcD/<J,~>
JcD/<J,~>
JcD/<J,~>
JcD/<J,~>
JcD/<J,~>
JcD/<J,~>
JcD/<J,~>
JcD/<J,~>
JcD/<J,~>
JcD/<J,~>
JcD/<J,~>
JcD/<J,~>
JcD/<J,~>
JcD/<J,~>
JcD/<J,~>
JcD/<J,~>
JcD/<J,~>
JcD/<J,~>
JcD/<J,~>
JcD/<J,~>
JcD/<J,~>
e,P!fp@$H0J,~>
e,OtXp,CG"J,~>
e,Ot_p--q)J,~>
e,P!fp@$H0J,~>
e,OtXp,CG"J,~>
e,Ot_p--q)J,~>
e,P!fp@$H0J,~>
e,OtXp,CG"J,~>
e,Ot_p--q)J,~>
e,P!fp@$H0J,~>
e,OtXp,CG"J,~>
e,Ot_p--q)J,~>
e,P!fp@$H0J,~>
e,OtXp,CG"J,~>
e,Ot_p--q)J,~>
e,P!fp@$H0J,~>
e,OtXp,CG"J,~>
e,Ot_p--q)J,~>
e,P!fp@$H0J,~>
e,OtXp,CG"J,~>
e,Ot_p--q)J,~>
e,P!fp@$H0J,~>
e,OtXp,CG"J,~>
e,Ot_p--q)J,~>
e,P!fp@$H0J,~>
e,OtXp,CG"J,~>
e,Ot_p--q)J,~>
e,P!fp@$H0J,~>
e,OtXp,CG"J,~>
e,Ot_p--q)J,~>
e,P!fp@$H0J,~>
e,OtXp,CG"J,~>
e,Ot_p--q)J,~>
e,P!fp@$H0J,~>
e,OtXp,CG"J,~>
e,Ot_p--q)J,~>
e,P!fp@$H0J,~>
e,OtXp,CG"J,~>
e,Ot_p--q)J,~>
e,P!fp@$H0J,~>
e,OtXp,CG"J,~>
e,Ot_p--q)J,~>
e,P!fp@$H0J,~>
e,OtXp,CG"J,~>
e,Ot_p--q)J,~>
e,P!fp@$H0J,~>
e,OtXp,CG"J,~>
e,Ot_p--q)J,~>
e,P!fp@$H0J,~>
e,OtXp,CG"J,~>
e,Ot_p--q)J,~>
e,P!fp@$H0J,~>
e,OtXp,CG"J,~>
e,Ot_p--q)J,~>
e,P!fp@$H0J,~>
e,OtXp,CG"J,~>
e,Ot_p--q)J,~>
e,P!fp@$H0J,~>
e,OtXp,CG"J,~>
e,Ot_p--q)J,~>
e,P!fp@$H0J,~>
e,OtXp,CG"J,~>
e,Ot_p--q)J,~>
e,S_%f)N8Kdf4g~>
e,S\lf)N6=df4g~>
e,S\sf)N6Ddf4g~>
e,S_%f)N8Kdf4g~>
e,S\lf)N6=df4g~>
e,S\sf)N6Ddf4g~>
e,S_%f)N8Kdf4g~>
e,S\lf)N6=df4g~>
e,S\sf)N6Ddf4g~>
e,S_%f)N8Kdf4g~>
e,S\lf)N6=df4g~>
e,S\sf)N6Ddf4g~>
e,S_%f)N8Kdf4g~>
e,S\lf)N6=df4g~>
e,S\sf)N6Ddf4g~>
e,S_%f)N8Kdf4g~>
e,S\lf)N6=df4g~>
e,S\sf)N6Ddf4g~>
e,S_%f)N8Kdf4g~>
e,S\lf)N6=df4g~>
e,S\sf)N6Ddf4g~>
e,S_%f)N8Kdf4g~>
e,S\lf)N6=df4g~>
e,S\sf)N6Ddf4g~>
e,S_%f)N8Kdf4g~>
e,S\lf)N6=df4g~>
e,S\sf)N6Ddf4g~>
e,S_%f)N8Kdf4g~>
e,S\lf)N6=df4g~>
e,S\sf)N6Ddf4g~>
e,S_%f)N8Kdf4g~>
e,S\lf)N6=df4g~>
e,S\sf)N6Ddf4g~>
e,S_%f)N8Kdf4g~>
e,S\lf)N6=df4g~>
e,S\sf)N6Ddf4g~>
e,S_%f)N8Kdf4g~>
e,S\lf)N6=df4g~>
e,S\sf)N6Ddf4g~>
e,S_%f)N8Kdf4g~>
e,S\lf)N6=df4g~>
e,S\sf)N6Ddf4g~>
e,S_%f)N8Kdf4g~>
e,S\lf)N6=df4g~>
e,S\sf)N6Ddf4g~>
e,S_%f)N8Kdf4g~>
e,S\lf)N6=df4g~>
e,S\sf)N6Ddf4g~>
e,R5PcN!1udf4g~>
e,R3BcN!/gdf4g~>
e,R3IcN!/ndf4g~>
e,R5PcN!1udf4g~>
e,R3BcN!/gdf4g~>
e,R3IcN!/ndf4g~>
e,R5PcN!1udf4g~>
e,R3BcN!/gdf4g~>
e,R3IcN!/ndf4g~>
e,R5PcN!1udf4g~>
e,R3BcN!/gdf4g~>
e,R3IcN!/ndf4g~>
e,R5PcN!1udf4g~>
e,R3BcN!/gdf4g~>
e,R3IcN!/ndf4g~>
e,R5PcN!1udf4g~>
e,R3BcN!/gdf4g~>
e,R3IcN!/ndf4g~>
e,R5PcN!1udf4g~>
e,R3BcN!/gdf4g~>
e,R3IcN!/ndf4g~>
e,R5PcN!1udf4g~>
e,R3BcN!/gdf4g~>
e,R3IcN!/ndf4g~>
e,R5PcN!1udf4g~>
e,R3BcN!/gdf4g~>
e,R3IcN!/ndf4g~>
e,R5PcN!1udf4g~>
e,R3BcN!/gdf4g~>
e,R3IcN!/ndf4g~>
e,R5PcN!1udf4g~>
e,R3BcN!/gdf4g~>
e,R3IcN!/ndf4g~>
e,R5PcN!1udf4g~>
e,R3BcN!/gdf4g~>
e,R3IcN!/ndf4g~>
e,R5PcN!1udf4g~>
e,R3BcN!/gdf4g~>
e,R3IcN!/ndf4g~>
e,R5PcN!1udf4g~>
e,R3BcN!/gdf4g~>
e,R3IcN!/ndf4g~>
e,R5PkPrrudf4g~>
e,R3BkPrpgdf4g~>
e,R3IkPrpndf4g~>
e,R5PlMo/udf4g~>
e,R3BlMo-gdf4g~>
e,R3IlMo-ndf4g~>
e,R5Pm/P;udf4g~>
e,R3Bm/P9gdf4g~>
e,R3Im/P9ndf4g~>
e,R5PmJkAudf4g~>
e,R3BmJk?gdf4g~>
e,R3ImJk?ndf4g~>
e,R5Pmf1Gudf4g~>
e,R3Bmf1Egdf4g~>
e,R3Imf1Endf4g~>
e,R5Pn,LMudf4g~>
e,R3Bn,LKgdf4g~>
e,R3In,LKndf4g~>
e,R5Pn,LMudf4g~>
e,R3Bn,LKgdf4g~>
e,R3In,LKndf4g~>
e,R5PnGgSudf4g~>
e,R3BnGgQgdf4g~>
e,R3InGgQndf4g~>
e,R5PnGgSudf4g~>
e,R3BnGgQgdf4g~>
e,R3InGgQndf4g~>
e,R5PnGgSudf4g~>
e,R3BnGgQgdf4g~>
e,R3InGgQndf4g~>
e,R5PnGgSudf4g~>
e,R3BnGgQgdf4g~>
e,R3InGgQndf4g~>
e,R5PnGgSudf4g~>
e,R3BnGgQgdf4g~>
e,R3InGgQndf4g~>
e,R5PnGgSudf4g~>
e,R3BnGgQgdf4g~>
e,R3InGgQndf4g~>
e,R5PnGgSudf4g~>
e,R3BnGgQgdf4g~>
e,R3InGgQndf4g~>
e,R5PnGgSudf4g~>
e,R3BnGgQgdf4g~>
e,R3InGgQndf4g~>
e,R5PnGgSudf4g~>
e,R3BnGgQgdf4g~>
e,R3InGgQndf4g~>
e,R5PnGgSudf4g~>
e,R3BnGgQgdf4g~>
e,R3InGgQndf4g~>
e,R5PnGgSudf4g~>
e,R3BnGgQgdf4g~>
e,R3InGgQndf4g~>
e,R5PnGgSudf4g~>
e,R3BnGgQgdf4g~>
e,R3InGgQndf4g~>
e,R5PnGgSudf4g~>
e,R3BnGgQgdf4g~>
e,R3InGgQndf4g~>
e,R5PnGgSudf4g~>
e,R3BnGgQgdf4g~>
e,R3InGgQndf4g~>
e,R5PnGgSudf4g~>
e,R3BnGgQgdf4g~>
e,R3InGgQndf4g~>
e,R5PnGgSudf4g~>
e,R3BnGgQgdf4g~>
e,R3InGgQndf4g~>
e,R5PnGgSudf4g~>
e,R3BnGgQgdf4g~>
e,R3InGgQndf4g~>
e,R5PnGgSudf4g~>
e,R3BnGgQgdf4g~>
e,R3InGgQndf4g~>
e,R5PnGgSudf4g~>
e,R3BnGgQgdf4g~>
e,R3InGgQndf4g~>
e,R5PnGgSudf4g~>
e,R3BnGgQgdf4g~>
e,R3InGgQndf4g~>
e,R5PnGgSudf4g~>
e,R3BnGgQgdf4g~>
e,R3InGgQndf4g~>
e,R5PnGgSudf4g~>
e,R3BnGgQgdf4g~>
e,R3InGgQndf4g~>
e,R5PnGgSudf4g~>
e,R3BnGgQgdf4g~>
e,R3InGgQndf4g~>
e,R5PnGgSudf4g~>
e,R3BnGgQgdf4g~>
e,R3InGgQndf4g~>
e,R5PnGgSudf4g~>
e,R3BnGgQgdf4g~>
e,R3InGgQndf4g~>
e,R5PnGgSudf4g~>
e,R3BnGgQgdf4g~>
e,R3InGgQndf4g~>
e,R5PnGgSudf4g~>
e,R3BnGgQgdf4g~>
e,R3InGgQndf4g~>
e,R5PnGgSudf4g~>
e,R3BnGgQgdf4g~>
e,R3InGgQndf4g~>
e,R5PnGgSudf4g~>
e,R3BnGgQgdf4g~>
e,R3InGgQndf4g~>
e,R5PnGgSudf4g~>
e,R3BnGgQgdf4g~>
e,R3InGgQndf4g~>
e,R5PnGgSudf4g~>
e,R3BnGgQgdf4g~>
e,R3InGgQndf4g~>
e,R5PnGgSudf4g~>
e,R3BnGgQgdf4g~>
e,R3InGgQndf4g~>
e,R5PnGgSudf4g~>
e,R3BnGgQgdf4g~>
e,R3InGgQndf4g~>
e,R5PnGgSudf4g~>
e,R3BnGgQgdf4g~>
e,R3InGgQndf4g~>
e,R5PnGgSudf4g~>
e,R3BnGgQgdf4g~>
e,R3InGgQndf4g~>
e,R5PnGgSudf4g~>
e,R3BnGgQgdf4g~>
e,R3InGgQndf4g~>
e,R5PnGgSudf4g~>
e,R3BnGgQgdf4g~>
e,R3InGgQndf4g~>
e,R5PnGgSudf4g~>
e,R3BnGgQgdf4g~>
e,R3InGgQndf4g~>
e,R5PnGgSudf4g~>
e,R3BnGgQgdf4g~>
e,R3InGgQndf4g~>
e,R5PnGgSudf4g~>
e,R3BnGgQgdf4g~>
e,R3InGgQndf4g~>
e,R5PnGgSudf4g~>
e,R3BnGgQgdf4g~>
e,R3InGgQndf4g~>
e,R5PnGgSudf4g~>
e,R3BnGgQgdf4g~>
e,R3InGgQndf4g~>
e,R5PnGgSudf4g~>
e,R3BnGgQgdf4g~>
e,R3InGgQndf4g~>
e,R5PnGgSudf4g~>
e,R3BnGgQgdf4g~>
e,R3InGgQndf4g~>
e,R5PnGgSudf4g~>
e,R3BnGgQgdf4g~>
e,R3InGgQndf4g~>
e,R5PnGgSudf4g~>
e,R3BnGgQgdf4g~>
e,R3InGgQndf4g~>
e,R5PnGgSudf4g~>
e,R3BnGgQgdf4g~>
e,R3InGgQndf4g~>
e,R5PnGgSudf4g~>
e,R3BnGgQgdf4g~>
e,R3InGgQndf4g~>
e,R5PnGgSudf4g~>
e,R3BnGgQgdf4g~>
e,R3InGgQndf4g~>
e,R5PnGgSudf4g~>
e,R3BnGgQgdf4g~>
e,R3InGgQndf4g~>
e,R5PnGgSudf4g~>
e,R3BnGgQgdf4g~>
e,R3InGgQndf4g~>
e,R5PnGgSudf4g~>
e,R3BnGgQgdf4g~>
e,R3InGgQndf4g~>
e,R5PnGgSudf4g~>
e,R3BnGgQgdf4g~>
e,R3InGgQndf4g~>
e,R5PnGgSudf4g~>
e,R3BnGgQgdf4g~>
e,R3InGgQndf4g~>
e,R5PnGgSudf4g~>
e,R3BnGgQgdf4g~>
e,R3InGgQndf4g~>
e,R5PnGgSudf4g~>
e,R3BnGgQgdf4g~>
e,R3InGgQndf4g~>
e,R5PnGgSudf4g~>
e,R3BnGgQgdf4g~>
e,R3InGgQndf4g~>
e,P!fp@$H0J,~>
e,OtXp,CG"J,~>
e,Ot_p--q)J,~>
e,P!fp@$H0J,~>
e,OtXp,CG"J,~>
e,Ot_p--q)J,~>
e,P!fp@$H0J,~>
e,OtXp,CG"J,~>
e,Ot_p--q)J,~>
e,P!fp@$H0J,~>
e,OtXp,CG"J,~>
e,Ot_p--q)J,~>
e,P!fp@$H0J,~>
e,OtXp,CG"J,~>
e,Ot_p--q)J,~>
e,P!fp@$H0J,~>
e,OtXp,CG"J,~>
e,Ot_p--q)J,~>
e,P!fp@$H0J,~>
e,OtXp,CG"J,~>
e,Ot_p--q)J,~>
e,P!fp@$H0J,~>
e,OtXp,CG"J,~>
e,Ot_p--q)J,~>
e,P!fp@$H0J,~>
e,OtXp,CG"J,~>
e,Ot_p--q)J,~>
e,P!fp@$H0J,~>
e,OtXp,CG"J,~>
e,Ot_p--q)J,~>
e,P!fp@$H0J,~>
e,OtXp,CG"J,~>
e,Ot_p--q)J,~>
e,P!fp@$H0J,~>
e,OtXp,CG"J,~>
e,Ot_p--q)J,~>
e,P!fp@$H0J,~>
e,OtXp,CG"J,~>
e,Ot_p--q)J,~>
e,P!fp@$H0J,~>
e,OtXp,CG"J,~>
e,Ot_p--q)J,~>
e,P!fp@$H0J,~>
e,OtXp,CG"J,~>
e,Ot_p--q)J,~>
e,P!fp@$H0J,~>
e,OtXp,CG"J,~>
e,Ot_p--q)J,~>
e,P!fp@$H0J,~>
e,OtXp,CG"J,~>
e,Ot_p--q)J,~>
e,P!fp@$H0J,~>
e,OtXp,CG"J,~>
e,Ot_p--q)J,~>
e,P!fp@$H0J,~>
e,OtXp,CG"J,~>
e,Ot_p--q)J,~>
e,P!fp@$H0J,~>
e,OtXp,CG"J,~>
e,Ot_p--q)J,~>
e,P!fp@$H0J,~>
e,OtXp,CG"J,~>
e,Ot_p--q)J,~>
e,P!fp@$H0J,~>
e,OtXp,CG"J,~>
e,Ot_p--q)J,~>
e,P!fp@$H0J,~>
e,OtXp,CG"J,~>
e,Ot_p--q)J,~>
JcD/<J,~>
JcD/<J,~>
JcD/<J,~>
JcD/<J,~>
JcD/<J,~>
JcD/<J,~>
JcD/<J,~>
JcD/<J,~>
JcD/<J,~>
JcD/<J,~>
JcD/<J,~>
JcD/<J,~>
JcD/<J,~>
JcD/<J,~>
JcD/<J,~>
JcD/<J,~>
JcD/<J,~>
JcD/<J,~>
JcD/<J,~>
JcD/<J,~>
JcD/<J,~>
JcD/<J,~>
JcD/<J,~>
JcD/<J,~>
JcD/<J,~>
JcD/<J,~>
JcD/<J,~>
JcD/<J,~>
JcD/<J,~>
JcD/<J,~>
JcD/<J,~>
JcD/<J,~>
JcD/<J,~>
JcD/<J,~>
JcD/<J,~>
JcD/<J,~>
JcD/<J,~>
JcD/<J,~>
JcD/<J,~>
JcD/<J,~>
JcD/<J,~>
JcD/<J,~>
JcD/<J,~>
JcD/<J,~>
JcD/<J,~>
JcD/<J,~>
JcD/<J,~>
JcD/<J,~>
JcD/<J,~>
JcD/<J,~>
JcD/<J,~>
JcD/<J,~>
JcD/<J,~>
JcD/<J,~>
JcD/<J,~>
JcD/<J,~>
JcD/<J,~>
JcD/<J,~>
JcD/<J,~>
JcD/<J,~>
JcD/<J,~>
JcD/<J,~>
JcD/<J,~>
JcD/<J,~>
JcD/<J,~>
JcD/<J,~>
JcD/<J,~>
JcD/<J,~>
JcD/<J,~>
JcD/<J,~>
JcD/<J,~>
JcD/<J,~>
JcD/<J,~>
JcD/<J,~>
JcD/<J,~>
JcD/<J,~>
JcD/<J,~>
JcD/<J,~>
JcD/<J,~>
JcD/<J,~>
JcD/<J,~>
JcD/<J,~>
JcD/<J,~>
JcD/<J,~>
JcD/<J,~>
JcD/<J,~>
JcD/<J,~>
JcD/<J,~>
JcD/<J,~>
JcD/<J,~>
JcD/<J,~>
JcD/<J,~>
JcD/<J,~>
JcD/<J,~>
JcD/<J,~>
JcD/<J,~>
JcD/<J,~>
JcD/<J,~>
JcD/<J,~>
JcD/<J,~>
JcD/<J,~>
JcD/<J,~>
JcD/<J,~>
JcD/<J,~>
JcD/<J,~>
JcD/<J,~>
JcD/<J,~>
JcD/<J,~>
JcD/<J,~>
JcD/<J,~>
JcD/<J,~>
JcD/<J,~>
JcD/<J,~>
JcD/<J,~>
JcD/<J,~>
JcD/<J,~>
JcD/<J,~>
JcD/<J,~>
JcD/<J,~>
JcD/<J,~>
JcD/<J,~>
JcD/<J,~>
JcD/<J,~>
JcD/<J,~>
JcD/<J,~>
JcD/<J,~>
JcD/<J,~>
JcD/<J,~>
JcD/<J,~>
JcD/<J,~>
JcD/<J,~>
JcD/<J,~>
JcD/<J,~>
JcD/<J,~>
JcD/<J,~>
JcD/<J,~>
JcD/<J,~>
JcD/<J,~>
%%EndData
showpage
%%Trailer
end
%%EOF
